<svg width="20" height="20" viewBox="0 0 20 20" fill="none" xmlns="http://www.w3.org/2000/svg">
<rect width="20" height="20" fill="#245796"/>
<path fill-rule="evenodd" clip-rule="evenodd" d="M8 15H5V12L12 5L15 8L8 15Z" fill="white"/>
</svg>
