<svg width="60" height="60" viewBox="0 0 60 60" fill="none" xmlns="http://www.w3.org/2000/svg">
<path fill-rule="evenodd" clip-rule="evenodd" d="M37 17H23V21H14V25H28V23H32V25H46V21H37V17ZM35 21V19H25V21H35Z" fill="#AAC4EA"/>
<path d="M28 27H14V43H46V27H32V29H28V27Z" fill="#245796"/>
<path d="M28 23H32V29H28V23Z" fill="white"/>
</svg>
