<svg width="60" height="60" viewBox="0 0 60 60" fill="none" xmlns="http://www.w3.org/2000/svg">
<rect x="26" y="14" width="24" height="12" fill="url(#paint0_linear)"/>
<rect x="26" y="34" width="24" height="12" fill="url(#paint1_linear)"/>
<rect x="10" y="14" width="12" height="12" fill="#1AB99B"/>
<rect x="10" y="34" width="12" height="12" fill="#1AB99B"/>
<rect x="26" y="14" width="20" height="6" fill="#0A9A7F"/>
<rect x="26" y="34" width="20" height="6" fill="#0A9A7F"/>
<defs>
<linearGradient id="paint0_linear" x1="48" y1="24.5" x2="46.1848" y2="12.1258" gradientUnits="userSpaceOnUse">
<stop stop-color="#8CDCCD"/>
<stop offset="1" stop-color="#0A9A7F"/>
</linearGradient>
<linearGradient id="paint1_linear" x1="48" y1="44.5" x2="46.1848" y2="32.1258" gradientUnits="userSpaceOnUse">
<stop stop-color="#8CDCCD"/>
<stop offset="1" stop-color="#0A9A7F"/>
</linearGradient>
</defs>
</svg>
