<svg width="80" height="40" viewBox="0 0 80 40" fill="none" xmlns="http://www.w3.org/2000/svg">
<path d="M24.8708 38.3529C24.7881 38.022 24.9191 37.9048 24.9191 37.9048C24.9674 37.9186 25.0915 37.7393 25.0915 37.6911C25.0915 37.6428 25.0708 37.6704 25.2707 37.5808C25.4706 37.4912 25.443 37.3946 25.5671 37.4291C25.6912 37.4636 25.6912 37.3533 25.7395 37.5118C25.7878 37.6704 25.7809 37.7462 25.8222 37.7945C25.8636 37.8428 25.8498 37.8703 25.9808 37.8634C26.1118 37.8565 26.2359 37.8565 26.2979 37.8014C26.36 37.7462 26.4427 37.8565 26.5943 37.6911C26.746 37.5256 26.7529 37.5877 26.7805 37.4843C26.8081 37.3809 26.8287 37.305 26.8287 37.305C26.8287 37.305 26.8012 37.1602 26.9115 37.1465C27.0218 37.1327 27.07 37.112 27.1459 37.112C27.2217 37.112 27.0494 37.0431 27.3458 37.1327C27.6422 37.2223 27.4561 37.2361 27.787 37.2361C28.1179 37.2361 28.1593 37.1947 28.3041 37.1947C28.4488 37.1947 28.4833 37.1396 28.5454 37.2223C28.6074 37.305 28.6281 37.2637 28.6143 37.4084C28.6005 37.5532 28.6694 37.5187 28.6074 37.6359C28.5454 37.7531 28.504 37.7876 28.4488 37.829C28.3937 37.8703 28.4075 37.9048 28.3385 37.9393C28.2696 37.9737 28.111 37.9737 28.0835 38.0082C28.0559 38.0427 28.0559 38.1185 27.9249 38.0771C27.7939 38.0358 27.856 38.0358 27.6836 38.0358C27.5113 38.0358 27.5733 38.0289 27.2906 38.0634C27.008 38.0978 26.8632 38.0771 26.815 38.1392C26.7667 38.2012 26.7943 38.3322 26.615 38.2495C26.4358 38.1668 26.3668 38.1323 26.2772 38.1875C26.1876 38.2426 26.0842 38.2978 26.0842 38.2978C26.0842 38.2978 26.0911 38.3874 25.8981 38.3874C25.705 38.3874 25.5189 38.3667 25.4913 38.3529C25.4637 38.3391 25.3327 38.3115 25.3327 38.3115C25.3327 38.3115 25.1673 38.4494 25.057 38.4356C24.9467 38.4219 24.8708 38.3529 24.8708 38.3529Z" fill="#181919"/>
<path d="M54.4435 8.95415C54.4526 8.89957 54.489 8.76312 54.489 8.76312L54.2252 8.64941L53.9022 8.82225L53.8113 9.0633L53.6475 9.18156C53.6475 9.18156 53.5793 9.30891 53.6384 9.3544C53.6976 9.39988 53.8022 9.40897 53.8022 9.40897L54.0068 9.1952L54.1296 9.03602L54.2752 9.01783L54.4207 8.95415H54.4435Z" fill="white"/>
<path d="M58.3771 6.17343C58.367 6.17343 58.1104 6.09241 58.1104 6.09241C58.1104 6.09241 57.8302 6.1498 57.7627 6.22069C57.6952 6.29158 57.6344 6.37935 57.6344 6.37935L57.6479 6.53802L57.9112 6.61567L58.2724 6.54815C58.2724 6.54815 58.3332 6.41986 58.3771 6.36247C58.421 6.30508 58.4412 6.28483 58.4412 6.28483L58.3771 6.17343Z" fill="white"/>
<path d="M45.996 24.5797C45.3692 23.8664 44.8561 23.1237 44.471 22.372L44.2361 22.4179V29.31H44.2414C44.2342 29.3175 44.2272 29.3248 44.2197 29.3325L44.3632 29.473C44.4248 29.4101 44.5269 29.2941 44.5269 29.2941C44.7027 28.9871 45.0026 28.7734 45.3494 28.7081L45.3736 28.7035L45.4206 28.6666C45.4255 28.6627 45.9164 28.2772 46.5157 27.8712L46.527 27.8634L46.5359 27.853C46.7944 27.5482 47.5811 26.6209 45.996 24.5797ZM46.3916 27.7126C45.7917 28.1198 45.3013 28.5049 45.2965 28.5087L45.2878 28.5156C44.9441 28.5866 44.642 28.7829 44.437 29.0644V22.7345C44.8102 23.408 45.2823 24.0717 45.8413 24.7076C47.3041 26.5916 46.6324 27.4282 46.3916 27.7126ZM35.1027 38.2491C35.1181 38.2461 35.133 38.2435 35.147 38.2415C35.2262 38.2301 35.05 38.2677 35.1027 38.2491ZM67.2698 1.53472C67.0725 1.40104 67.2062 1.50289 66.9898 1.42651C66.7734 1.35012 66.7288 1.24191 66.5888 1.24828C66.4488 1.25464 66.3724 1.19099 66.2642 1.33103C66.156 1.47107 66.3469 1.38832 66.0796 1.54745C65.8123 1.70658 65.9205 1.6493 65.685 1.91664C65.4495 2.18398 65.5514 2.22217 65.2968 2.26036C65.0422 2.29855 65.4113 2.10123 64.9085 2.30492C64.4057 2.50861 64.4376 2.46405 64.3357 2.59136C64.2339 2.71867 64.2021 2.83324 64.0239 2.97964C63.8456 3.12605 64.0748 3.06239 63.7247 3.16424C63.3747 3.26608 63.5656 3.15787 63.2283 3.33611C62.891 3.51433 62.8082 3.61618 62.6236 3.64164C62.4391 3.6671 62.3436 3.60345 62.1017 3.78804C61.8599 3.97264 61.9212 3.95627 61.3469 4.40807C60.7725 4.85986 60.9016 4.82113 60.6047 5.02121C60.3079 5.22129 60.1272 5.45364 59.882 5.4601C59.6367 5.46655 59.5722 5.46655 59.4754 5.46655C59.3786 5.46655 59.3463 5.42782 59.2495 5.35037C59.1527 5.27292 59.3463 5.20193 59.0301 5.24065C58.7139 5.27938 58.6171 5.22129 58.4041 5.35037C58.1912 5.47945 58.1847 5.42782 57.9717 5.44073C57.7588 5.45364 57.7652 5.33101 57.4748 5.53755C57.1844 5.74408 57.0876 5.80862 57.0102 5.95706C56.9327 6.10551 56.9198 6.13132 56.6746 6.30559C56.4294 6.47985 56.2422 6.58958 56.4939 6.73156C56.7456 6.87355 57.1973 6.42822 57.2296 6.73156C57.2619 7.03491 57.3135 7.03491 57.1005 7.11881C56.8876 7.20272 56.8384 7.51014 56.5743 7.50036C56.3102 7.49057 56.3787 7.55906 56.1048 7.71558C55.8309 7.8721 55.8211 7.95037 55.6157 7.95037C55.4103 7.95037 55.1951 7.92102 55.1755 8.08733C55.156 8.25363 55.0386 8.36125 55.0386 8.36125C55.0386 8.36125 54.5886 8.52755 54.6864 8.28298C54.7843 8.03841 55.0679 7.83297 55.0679 7.83297C55.0679 7.83297 55.3712 7.89167 55.5766 7.59819C55.782 7.3047 56.007 7.4221 55.7624 7.18731C55.5179 6.95252 55.7037 6.85469 55.3222 6.90361C54.9408 6.95252 54.794 6.88404 54.5984 7.04057C54.4028 7.19709 54.5104 7.14818 54.168 7.37318C53.8256 7.59819 53.767 7.59819 53.4344 7.83297C53.1018 8.06776 53.2583 8.12646 52.7399 8.26342C52.2214 8.40038 52.016 8.44929 51.7324 8.5569C51.4487 8.66451 51.1063 8.83082 50.9694 8.96778C50.8324 9.10474 50.9107 9.06561 50.6466 9.30039C50.3825 9.53518 49.5902 9.95585 49.5902 9.95585C49.5902 9.95585 45.6156 12.3504 44.9855 15.1147C44.3555 17.879 44.0232 20.7783 46.7976 23.9188C48.131 25.6231 48.4791 27.2458 47.2164 28.6513C46.597 29.0632 46.0616 29.4835 46.0616 29.4835C46.2106 29.713 46.3585 29.9317 46.2106 29.9961C46.0627 30.0604 45.8311 30.0282 45.7604 29.8545C45.6896 29.6809 45.471 29.6873 45.4131 29.8417C45.3552 29.9961 43.8138 31.5382 42.6416 32.1645C41.4694 32.7908 40.811 33.3207 40.1206 33.6098C39.4301 33.8989 39.125 34.3325 38.4827 34.204C37.8404 34.0755 37.7762 34.22 37.182 34.22C36.5879 34.22 36.7485 34.22 36.4594 34.4128C36.1704 34.6055 36.0926 34.7446 35.6379 34.7743C35.1833 34.8039 34.8571 34.6556 34.7286 34.794C34.6001 34.9324 34.3431 34.9819 34.6198 35.0609C34.8966 35.14 34.778 35.1499 35.1338 35.1499C35.4897 35.1499 35.5391 35.2587 36.0037 35.1005C36.4682 34.9423 36.1816 35.0708 36.8439 34.8237C37.5061 34.5765 37.5061 34.4777 37.8323 34.5568C38.1585 34.6359 38.4748 34.6853 38.4748 34.6853C38.4748 34.6853 39.0185 34.5074 38.6132 34.9621C38.2079 35.4168 38.4451 35.5552 37.8323 35.5058C37.2195 35.4564 37.4172 35.3575 36.8834 35.4663C36.3496 35.575 36.1519 35.575 35.8554 35.7233C35.5589 35.8716 35.2426 35.8024 34.521 35.9605C33.7994 36.1187 33.7796 36.1088 33.1371 36.2176C32.4946 36.3263 32.3563 36.1484 32.1289 36.1978C31.9016 36.2472 31.891 36.3587 31.9284 36.6254C31.9657 36.8921 31.939 36.9828 32.1684 37.0628C32.3977 37.1428 32.5631 37.1695 32.8565 37.2228C33.1498 37.2762 33.5765 37.2228 33.1925 37.3669C32.8084 37.5109 32.9098 37.3935 32.6058 37.5536C32.3017 37.7136 32.2377 37.7936 32.0937 37.8416C31.9497 37.8896 31.7364 37.9163 31.7364 37.9163L31.3843 38.0017L31.3232 37.9434C31.1785 37.8326 31.3658 37.9774 31.1785 37.8326C30.9911 37.6878 30.8378 37.7049 30.8974 37.6027C30.957 37.5005 31.0677 37.4579 31.0677 37.4579L31.1359 37.3131C31.1359 37.3131 31.1569 37.2705 31.1038 37.032C31.0507 36.7935 31.0507 36.7935 31.0507 36.7935C31.0507 36.7935 30.923 36.6573 30.923 36.5806C30.923 36.504 31.221 36.538 30.923 36.4614C30.6249 36.3847 30.6249 36.3336 30.5483 36.3932C30.4716 36.4529 30.2843 36.4699 30.2672 36.5125C30.2502 36.5551 30.2672 36.5891 30.1906 36.6062C30.1139 36.6232 30.0714 36.5125 29.9351 36.6317C29.7988 36.751 29.7477 36.7765 29.7477 36.8276C29.7477 36.8787 29.7903 36.9298 29.6881 36.9809C29.5859 37.032 29.4752 37.056 29.4071 37.0866C29.339 37.1172 29.2368 37.0866 29.2368 37.0866C29.2368 37.0866 28.9898 37.245 28.9813 37.3131C28.9728 37.3812 29.0239 37.5516 29.0239 37.5516C29.0239 37.5516 29.1857 37.5516 29.1516 37.6538C29.1175 37.756 28.6747 37.6649 29.0835 37.7616C29.4923 37.8582 29.6115 37.8497 29.7137 37.9434C29.8159 38.037 29.8499 38.0626 29.8755 38.1307C29.901 38.1989 29.7988 38.2244 30.0032 38.2926C30.2076 38.3607 30.0458 38.4442 30.412 38.4365C30.7782 38.4288 30.94 38.3863 31.0933 38.3863C31.2466 38.3863 31.2807 38.4885 31.6639 38.3777C32.0471 38.267 32.26 38.1563 32.26 38.1563C32.26 38.1563 32.4389 38.2159 32.6347 38.2159C32.8306 38.2159 32.8306 38.2755 33.0605 38.1989C33.2905 38.1222 33.3075 38.1137 33.4949 38.02C33.6822 37.9263 33.5545 37.756 33.8611 37.8923C34.1676 38.0285 34.2698 38.0882 34.2698 38.0882C34.2698 38.0882 34.3806 38.284 34.619 38.3011C34.8294 38.3161 34.9866 38.2715 35.1027 38.2491C35.1292 38.2398 35.2139 38.2162 35.4195 38.1648C36.0327 38.0115 36.1079 38.1198 36.4014 38.0415C36.6949 37.9632 36.734 37.9926 37.0764 37.9339C37.4188 37.8752 37.6732 37.8556 37.6732 37.8556L38.1917 38.1589C38.1917 38.1589 38.3286 38.2763 38.4949 38.3937C38.6612 38.5111 38.9645 38.6677 38.9645 38.6677C38.9645 38.6677 39.2775 38.8634 39.5515 38.6872C39.8254 38.5111 40.1482 38.1785 40.1482 38.1785C40.1482 38.1785 40.2069 37.9241 40.4417 37.8263C40.6765 37.7284 40.7352 37.7089 40.8526 37.7578C40.97 37.8067 40.833 37.973 41.1558 37.7969C41.4787 37.6208 41.6841 37.5621 41.6841 37.5621C41.6841 37.5621 41.9678 37.7382 42.0558 37.7871C42.1439 37.8361 42.4374 37.8556 42.4374 37.8556L42.7895 37.748L43.0145 37.4545L43.445 36.9849C43.445 36.9849 43.6895 36.8772 43.9928 36.8577C44.2961 36.8381 44.6385 36.6816 44.707 36.6131C44.7754 36.5446 44.883 36.2876 44.9711 36.3672C45.0591 36.4468 45.0494 36.5837 45.0787 36.5837C45.1081 36.5837 45.3518 36.4395 45.3652 36.5665C45.3785 36.6935 45.4119 36.6066 45.3785 36.8271C45.3451 37.0476 45.3384 37.1345 45.3384 37.1345L45.8797 37.0944L46.3808 36.7536L46.4743 36.6534L46.0467 36.4997C46.0467 36.4997 45.9331 36.3848 45.873 36.352C45.8128 36.3192 45.7393 36.219 45.7393 36.219L45.6124 36.0987L46.2472 35.778L46.5211 35.6176L46.7349 35.5574L46.8418 35.6978V36.0987C46.8418 36.0987 46.7282 36.3593 46.9621 36.3994C47.196 36.4395 47.343 36.4128 47.4098 36.3593C47.4766 36.3059 47.6169 36.2725 47.6303 36.1789C47.6436 36.0854 47.6704 36.0185 47.5501 35.9183C47.4298 35.8181 47.2895 35.7646 47.2895 35.7646L47.2361 35.6109L47.2761 35.3236C47.2761 35.3236 47.4098 35.2233 47.4566 35.23C47.5033 35.2367 47.5969 35.3904 47.5969 35.3904L47.7439 35.4639C47.7439 35.4639 47.9376 35.4037 47.9844 35.1699C48.0312 34.936 48.0913 34.8023 48.0913 34.8023L48.2918 34.7154C48.2918 34.7154 48.4922 34.682 48.7127 34.8023C48.9332 34.9226 49.0468 34.9827 49.0468 34.9827L49.2406 34.8892C49.2406 34.8892 49.126 34.4577 49.1318 34.4402C49.1377 34.4227 49.3595 34.23 49.3595 34.23C49.3595 34.23 49.6163 34.4344 49.9548 34.2826C50.2934 34.1308 50.5502 33.7455 50.8187 33.5821C51.0872 33.4186 51.2565 33.3953 51.3791 33.1676C51.5017 32.9399 51.5775 32.7298 51.5775 32.7298C51.5775 32.7298 54.0704 30.2906 54.2667 27.5023C54.463 24.7141 53.5095 23.0251 53.1399 22.4035C52.7703 21.7819 50.9235 18.5369 50.7216 18.335C50.5198 18.1331 50.1419 16.4618 50.6157 15.6138C50.1918 15.2024 50.2666 14.8906 50.2666 14.8906C50.2666 14.8906 50.7653 14.741 50.9648 14.8906C51.3047 13.756 53.9766 10.1303 56.5423 9.04782C56.9977 8.94042 57.0325 8.71752 56.9907 8.63393C56.9489 8.55034 56.7051 8.46675 56.7957 8.39709C56.8862 8.32743 56.9628 8.30654 56.9628 8.30654L57.0603 8.43888L57.3459 8.50158C57.3459 8.50158 57.5757 8.41799 57.8125 8.20902C58.0494 8.00004 58.2877 7.57826 58.59 7.54046C58.8924 7.50267 58.8735 7.60661 59.242 7.54991C59.6105 7.49322 59.4499 7.58772 59.7239 7.37982C59.9979 7.17192 60.0829 6.93568 60.0829 6.93568C60.0829 6.93568 59.979 6.61438 60.2719 6.51988C60.5648 6.42539 60.7727 6.33089 61.0939 6.29309C61.4152 6.2553 61.5664 6.2553 61.6703 6.00015C61.7743 5.74501 61.3341 5.45302 61.621 5.28906C61.9079 5.12511 61.8915 5.28087 62.244 5.1333C62.5965 4.98574 62.5473 5.03493 62.7194 4.7808C62.8915 4.52666 62.8014 4.64963 62.9079 4.42829C63.0145 4.20695 62.8424 4.30532 63.244 4.12497C63.6457 3.94462 63.5637 3.93642 63.8178 3.89543C64.0719 3.85444 64.0637 3.92823 64.2768 3.74787C64.4899 3.56752 64.4244 3.66589 64.5719 3.37897C64.7195 3.09205 64.8096 3.17402 64.9982 3.08384C65.1867 2.99367 65.4736 2.80512 65.531 2.70675C65.5883 2.60837 65.8823 2.34948 66.2706 2.34311C66.6588 2.33675 66.7734 2.24763 66.9325 2.13942C67.0916 2.03121 67.1107 2.1076 67.1807 1.87208C67.2507 1.63657 67.4671 1.66839 67.2698 1.53472ZM34.714 36.5212C34.7983 36.4971 34.9307 36.5212 34.9307 36.5212L34.9909 36.5693C34.9909 36.5693 35.007 36.5894 35.0391 36.6818C35.0712 36.7741 34.995 36.754 34.995 36.754L34.8223 36.8062L34.6136 36.7781C34.6136 36.7781 34.5815 36.7099 34.5855 36.6376C34.5895 36.5653 34.6297 36.5452 34.714 36.5212ZM35.758 37.5928C35.751 37.614 35.5986 37.6672 35.5986 37.6672L35.4781 37.6814L35.3222 37.6672C35.3222 37.6672 35.2478 37.6778 35.1946 37.7274C35.1415 37.7771 35.0281 37.8302 35.0281 37.8302C35.0281 37.8302 34.936 37.8479 34.773 37.8656C34.61 37.8834 34.5993 37.8267 34.5993 37.8267L34.5568 37.7026C34.5568 37.7026 34.6419 37.6601 34.7552 37.6211C34.8686 37.5821 34.9253 37.6034 34.9253 37.6034C34.9253 37.6034 34.9927 37.5892 35.0706 37.5573C35.1486 37.5254 35.1025 37.5183 35.1344 37.4794C35.1663 37.4404 35.432 37.4156 35.432 37.4156L35.7261 37.451L35.7332 37.4723L35.7651 37.5432C35.7651 37.5432 35.7651 37.5715 35.758 37.5928ZM37.5827 37.2034C37.5798 37.2385 37.5534 37.3117 37.5534 37.3117L37.4187 37.3352L37.3807 37.3967L37.3074 37.4904C37.3074 37.4904 37.2372 37.4933 37.0527 37.4962C36.8682 37.4992 36.9355 37.464 36.9355 37.464C36.9355 37.464 36.918 37.4025 36.8916 37.3557C36.8652 37.3088 36.7364 37.3674 36.7364 37.3674L36.4904 37.3557L36.464 37.2619L36.5109 37.2327L36.628 37.136L36.6983 37.0598L36.8389 36.9808L37.1815 36.9368L37.3543 36.9837L37.3953 37.0364L37.5124 37.0833C37.5124 37.0833 37.5534 37.1126 37.5681 37.1389C37.5827 37.1653 37.5857 37.1682 37.5827 37.2034ZM37.6488 36.2882C37.6488 36.2882 37.6261 36.2957 37.5394 36.3033C37.4526 36.3108 37.4658 36.3485 37.4658 36.3485L37.3961 36.4353L37.2188 36.4258C37.2188 36.4258 37.1716 36.3995 37.1509 36.3787C37.1302 36.358 37.1698 36.2655 37.1698 36.2655C37.1698 36.2655 37.198 36.241 37.2339 36.2278C37.2697 36.2146 37.3093 36.1901 37.3338 36.1675C37.3583 36.1448 37.3376 36.1411 37.347 36.0807C37.3565 36.0204 37.4658 36.0279 37.4658 36.0279L37.5394 36.0487L37.5771 36.0788C37.5771 36.0788 37.6186 36.1033 37.6733 36.1807C37.728 36.258 37.6488 36.2882 37.6488 36.2882ZM40.1041 35.8048C40.1041 35.735 40.2848 35.7636 40.2944 35.7636L40.3367 35.7578L40.3863 35.8365L40.38 35.8968C40.38 35.8968 40.3736 35.9475 40.3367 35.9983C40.2998 36.049 40.2182 36.0078 40.2182 36.0078C40.2182 36.0078 40.1612 35.9697 40.1199 35.9253C40.0787 35.8809 40.1041 35.8746 40.1041 35.8048ZM42.0992 35.8368C42.0745 35.9111 42.0064 36.0163 42.0064 36.0163C42.0064 36.0163 41.9692 36.0783 41.8702 36.1216C41.7711 36.1649 41.4678 36.233 41.4678 36.233C41.4678 36.233 41.344 36.1959 41.2573 36.233C41.1706 36.2702 40.9849 36.3693 40.9849 36.3693C40.9849 36.3693 40.9601 36.3374 40.9725 36.4215C40.9849 36.5055 40.9911 36.6169 40.9911 36.6169L40.8115 36.747L40.6072 36.685C40.6072 36.685 40.5639 36.586 40.4339 36.586C40.3039 36.586 40.211 36.6045 40.211 36.6045C40.211 36.6045 40.1243 36.6541 40.0934 36.716C40.0624 36.7779 40.1099 36.7655 39.984 36.846C39.8581 36.9265 39.8086 36.9017 39.7715 36.9203C39.7343 36.9389 39.6848 37.0318 39.6848 37.0318V37.2175C39.6848 37.2175 39.6786 37.3104 39.6353 37.3413C39.5919 37.3723 39.6105 37.3352 39.53 37.3785C39.4495 37.4218 39.3752 37.4218 39.3752 37.4218L39.3195 37.4156L39.3628 37.3785C39.2886 37.1432 39.3938 37.2361 39.1709 37.0503C38.9481 36.8646 38.9666 36.8089 38.88 36.8274C38.7933 36.846 38.7933 36.8832 38.7128 36.9017C38.6323 36.9203 38.5642 36.976 38.5642 36.8832C38.5642 36.7903 38.5642 36.6912 38.5642 36.6912L38.6014 36.5364C38.6014 36.5364 38.6199 36.4869 38.6818 36.4436C38.7438 36.4002 38.8119 36.2888 38.8428 36.2702C38.8738 36.2516 38.9914 36.2578 38.9914 36.2578C38.9914 36.2578 39.0223 36.2702 39.1214 36.3816C39.2205 36.4931 39.1709 36.5117 39.2824 36.5241C39.3938 36.5364 39.4619 36.5364 39.4619 36.5364C39.4619 36.5364 39.6043 36.4869 39.66 36.5055C39.7157 36.5241 39.7343 36.5364 39.8272 36.5612C39.92 36.586 39.9613 36.6107 39.984 36.5984C40.0067 36.586 39.9757 36.6355 40.0377 36.5426C40.0996 36.4498 40.0748 36.4931 40.1305 36.394C40.1862 36.295 40.2172 36.2568 40.2172 36.2568C40.2172 36.2568 40.211 36.2806 40.3286 36.2568C40.4463 36.233 40.3967 36.3445 40.502 36.2269C40.6072 36.1092 40.4648 36.0535 40.6753 36.0535C40.8858 36.0535 40.8796 36.0783 41.0096 36.0659C41.1396 36.0535 41.1706 36.0225 41.1706 36.0225L41.1892 35.8677L41.152 35.7996C41.152 35.7996 41.1334 35.7191 41.0654 35.6634C40.9973 35.6077 40.8672 35.5891 40.9477 35.521C41.0282 35.4529 41.0963 35.4653 41.0963 35.4653C41.0963 35.4653 41.313 35.5272 41.3316 35.5644C41.3501 35.6015 41.2387 35.6634 41.3811 35.6758C41.5235 35.6882 41.5916 35.6448 41.6783 35.6572C41.7649 35.6696 41.963 35.7068 41.963 35.7068C41.963 35.7068 42.025 35.7006 42.0621 35.7439C42.0992 35.7873 42.124 35.7625 42.0992 35.8368ZM42.7289 36.8755L42.6495 36.944L42.4512 37.0017L42.2457 36.8719L42.2854 36.7277C42.2854 36.7277 42.3899 36.6664 42.5017 36.6447C42.6135 36.6231 42.6676 36.6988 42.6676 36.6988L42.7289 36.807V36.8755ZM44.2456 35.0416C44.1662 35.1507 44.072 35.1259 44.072 35.1259C43.9777 35.0813 43.943 35.3193 43.943 35.0763C43.943 34.8333 43.8637 34.8977 43.943 34.8085C44.0224 34.7192 44.1067 34.6795 44.1612 34.6845C44.2158 34.6894 44.2456 34.6299 44.2456 34.8085C44.2456 34.987 44.3249 34.9325 44.2456 35.0416ZM71.2905 14.2935C68.4204 14.2935 65.771 15.7043 64.1371 18.0836V14.302H62.5111V8.5136H60.2764C60.3214 8.48256 60.3643 8.45053 60.4059 8.41842C60.4243 8.40417 60.4462 8.38723 60.4727 8.36709C60.8609 8.07265 61.0716 7.73463 61.1714 7.53422C61.1934 7.52997 61.2154 7.52656 61.2384 7.52389L61.2956 7.51728C61.639 7.47821 62.4434 7.38666 62.8178 6.4678C62.8529 6.38185 62.8797 6.29341 62.8978 6.20415C63.2846 6.03935 63.4744 5.878 63.7186 5.51539L63.7454 5.4757C63.8243 5.35918 63.8834 5.27195 63.9351 5.16998C63.9763 5.15003 64.011 5.13264 64.0402 5.11773C64.4451 5.10151 64.7362 4.98241 65.0772 4.69388C65.1052 4.67018 65.126 4.6538 65.1462 4.63788C65.3598 4.47003 65.4641 4.32738 65.5401 4.19828C65.7543 4.09519 66.1398 3.88278 66.4175 3.57781C67.0146 3.54607 67.337 3.36196 67.5919 3.18966C67.9222 3.02939 68.1521 2.78337 68.2943 2.43803C68.5673 2.10504 68.604 1.75848 68.5863 1.52514C68.5644 1.23871 68.4389 0.82987 67.9647 0.508749C67.8433 0.426459 67.6613 0.303103 67.4062 0.248345C67.296 0.178609 67.0099 0.00879151 66.6005 0.00879151L66.5948 0.00882499C66.5519 0.00460667 66.4947 0 66.4263 0C65.9751 0 65.5694 0.203584 65.2839 0.573095C65.2792 0.579209 65.2745 0.585355 65.2699 0.591502C65.0941 0.707137 64.9818 0.812381 64.8461 0.987428C64.8377 0.998315 64.8291 1.00936 64.8191 1.02192C64.6955 1.05562 64.5707 1.10473 64.4433 1.15635C64.3214 1.20576 64.2335 1.23927 64.1649 1.26549C63.8654 1.37972 63.633 1.48617 63.368 1.81743C63.3102 1.88975 63.265 1.95638 63.2329 2.00572C63.0097 2.04998 62.8638 2.12711 62.6495 2.24036C62.5234 2.30699 62.4241 2.36571 62.3429 2.41531C62.1074 2.4309 61.7567 2.49253 61.35 2.80292C61.2146 2.90617 61.1447 2.96744 61.0707 3.03231C60.9935 3.09992 60.8879 3.19254 60.5808 3.43402C60.2436 3.6993 60.1082 3.82625 60.0187 3.91024C59.9745 3.9516 59.9745 3.9516 59.9122 3.99355C59.8565 4.03118 59.8 4.07171 59.7408 4.11664C59.5647 4.03291 59.3704 3.9905 59.1625 3.9905C59.0803 3.9905 58.9931 3.99672 58.8795 4.01061C58.8328 4.01633 58.7968 4.01731 58.7422 4.01878C58.5709 4.02353 58.2872 4.03141 57.9464 4.19144C57.8773 4.18183 57.8083 4.17699 57.7408 4.17699C57.3054 4.17699 56.9863 4.36436 56.7569 4.52757L56.7203 4.55356C56.4242 4.76398 56.1677 4.94618 55.9635 5.29061L55.9141 5.3256C55.82 5.3919 55.667 5.4997 55.5231 5.65306C55.5044 5.65238 55.4869 5.65208 55.4709 5.65208C55.3795 5.65208 55.2851 5.65898 55.1647 5.67445C55.0969 5.68314 55.0381 5.6851 54.97 5.68742C54.7107 5.69622 54.2767 5.71093 53.8242 6.07295C53.7326 6.14625 53.6755 6.19804 53.628 6.24277C53.6096 6.25591 53.5695 6.28367 53.4875 6.33751C53.3659 6.41745 53.2948 6.45865 53.2109 6.50716C53.0889 6.57768 52.9506 6.65762 52.7198 6.8205C52.6089 6.89887 52.5107 6.97933 52.4206 7.06594C52.3647 7.08071 52.2348 7.11491 52.2341 7.11511C51.8253 7.22251 51.6 7.28169 51.2929 7.39821C50.9208 7.53935 50.4106 7.77419 50.0933 8.09142C50.0072 8.17747 49.9554 8.23896 49.913 8.29226C49.8998 8.30498 49.8738 8.32934 49.8282 8.37001C49.7447 8.44023 49.3688 8.6701 49.0091 8.86127L48.9507 8.89432C48.9062 8.92119 47.8463 9.56399 46.7054 10.5685C45.6907 11.4618 44.9782 12.41 44.437 13.5952V8.28516H37.7457V13.9825H31.5306V14.3847C30.6521 14.1462 29.7688 14.0254 28.9033 14.0254C26.5865 14.0254 24.5327 14.8599 22.7988 16.5058C22.3812 16.9023 22.0095 17.3279 21.6895 17.7738V8.37422H14.443L10.8117 17.5638L7.33839 8.37422H0V30.8878H6.55205L6.53234 25.6454L8.66065 30.8878H12.8741L14.9856 25.6579V30.8878H21.6895V27.0974C22.0516 27.6812 22.4551 28.189 22.8246 28.5203L22.8532 28.5453C22.8968 28.582 22.946 28.6251 23.001 28.6733L23.0157 28.6862C23.8201 29.3915 25.7037 31.0431 28.6891 31.0433C29.6095 31.0433 30.5647 30.881 31.5306 30.5606V30.9007L42.347 30.8997C42.2444 30.9656 42.1473 31.0235 42.0576 31.0714C41.4803 31.38 41.0335 31.658 40.6394 31.9033C40.2389 32.1524 39.9226 32.3492 39.6421 32.4666C39.3335 32.5958 39.0947 32.7385 38.9027 32.8531C38.836 32.893 38.7402 32.9502 38.6812 32.9801C38.4367 32.9334 38.2263 32.9115 38.0216 32.9115C37.8126 32.9115 37.6503 32.9345 37.5191 32.9531C37.4046 32.9691 37.3218 32.9808 37.182 32.9808C36.6426 32.9808 36.2862 32.9808 35.8295 33.3392C35.8076 33.3564 35.7944 33.3668 35.7721 33.3816C35.6861 33.439 35.6178 33.4897 35.5622 33.5308L35.5526 33.538C35.5386 33.5387 35.5249 33.5391 35.5116 33.5391C35.4416 33.5391 35.3616 33.53 35.276 33.5204C35.1699 33.5083 35.0498 33.4947 34.9173 33.4947C34.4155 33.4947 34.0866 33.6996 33.8975 33.8741C33.3955 34.2088 33.2669 34.6242 33.2573 34.9414C33.1664 34.9563 33.061 34.9736 32.9304 34.9957C32.8589 35.0077 32.7967 35.0142 32.7504 35.0142C32.714 35.0142 32.6985 35.0113 32.631 34.9977C32.5356 34.9786 32.3914 34.9497 32.2124 34.9497C32.0959 34.9497 31.9792 34.9622 31.8658 34.9869C31.7329 35.0157 31.4816 35.0894 31.2435 35.2643C31.2395 35.2632 31.2355 35.2622 31.2315 35.2611C31.1765 35.247 31.1486 35.237 31.1125 35.2241C31.0184 35.1905 30.8433 35.1279 30.6076 35.1279C30.4575 35.1279 30.2287 35.1553 29.987 35.2849C29.9357 35.3008 29.8619 35.3255 29.7779 35.3646C29.5377 35.4141 29.3161 35.5267 29.119 35.6992C29.0999 35.716 29.083 35.7302 29.0683 35.7425L29.0471 35.7361L28.7014 35.9578C28.5516 35.9312 28.4009 35.9304 28.2399 35.9565C28.1162 35.9604 28.023 35.9753 27.9609 35.9852C27.9261 35.9907 27.9038 35.9943 27.8532 35.9958C27.8068 35.9789 27.7568 35.9623 27.7042 35.9464C27.5063 35.8866 27.3622 35.8473 27.1697 35.8473C27.0273 35.8473 26.8879 35.8708 26.7552 35.917C26.4923 35.9504 26.2416 36.0636 26.0426 36.2378C25.8784 36.1898 25.7423 36.1841 25.6877 36.1841C25.6636 36.1841 25.6404 36.1849 25.6179 36.1861C25.2745 36.1615 24.9551 36.264 24.6794 36.486L24.6777 36.4867C24.3691 36.6135 24.142 36.8102 24.0024 37.0715C23.7845 37.311 23.4623 37.8274 23.6688 38.6534L23.7597 39.0173L24.0372 39.2695C24.1473 39.3697 24.452 39.6088 24.9031 39.6652C24.9589 39.6722 25.0161 39.6758 25.0731 39.6758C25.216 39.6758 25.3608 39.6532 25.5038 39.6086C25.6221 39.6206 25.7545 39.6266 25.898 39.6266C26.1251 39.6266 26.3355 39.5849 26.5239 39.5025C26.8462 39.5471 27.1765 39.4705 27.4401 39.2934L27.5122 39.2846C27.5497 39.2799 27.5759 39.2767 27.5962 39.2746H27.6048C27.9866 39.3807 28.3774 39.3256 28.6894 39.1298C28.7605 39.1071 28.8289 39.0793 28.8929 39.0474C28.9061 39.0407 28.918 39.0337 28.9307 39.0268C29.0546 39.1731 29.2128 39.2931 29.4025 39.384C29.7431 39.6458 30.1157 39.6763 30.3672 39.6763C30.3894 39.6763 30.4129 39.676 30.4379 39.6755C30.7086 39.6698 30.8974 39.6483 31.0216 39.6342L31.0234 39.634C31.1366 39.6569 31.2528 39.6685 31.3689 39.6685C31.5682 39.6685 31.7712 39.6366 32.0077 39.5683C32.1405 39.5299 32.2703 39.4876 32.394 39.4424C32.4643 39.4497 32.5341 39.4539 32.6022 39.4549C32.6495 39.4624 32.7484 39.4772 32.8708 39.4772C33.0573 39.4772 33.2421 39.4446 33.4523 39.3746C33.5724 39.3345 33.6593 39.3044 33.739 39.2726C33.8332 39.3336 33.9329 39.3849 34.0366 39.4256L34.0483 39.4939H34.2522C34.3429 39.5159 34.4365 39.5304 34.5309 39.5372C34.5879 39.5412 34.6461 39.5433 34.7038 39.5433C34.9297 39.5433 35.1162 39.5112 35.2382 39.4866C35.3708 39.4732 35.4992 39.4416 35.6201 39.3923L35.7201 39.367C35.9312 39.3143 36.0005 39.3141 36.0966 39.3138C36.2345 39.3135 36.4429 39.313 36.7208 39.2389C36.7993 39.2179 36.8104 39.2168 36.8991 39.2076C36.9864 39.1986 37.1059 39.1862 37.2856 39.1553C37.3279 39.1481 37.3686 39.1415 37.4072 39.1357L37.4797 39.1781C37.5504 39.2353 37.6582 39.3198 37.7805 39.4063C37.9793 39.5466 38.2574 39.6963 38.3648 39.7525C38.5278 39.845 38.8653 40 39.2957 40C39.6263 40 39.9465 39.9065 40.2216 39.7296C40.524 39.5352 40.8235 39.2539 40.9641 39.1152C41.2397 39.1144 41.4663 39.026 41.6226 38.9503C41.8141 39.0248 42.0601 39.0725 42.355 39.0921L42.5818 39.1072L43.5314 38.8172L43.9648 38.2517L44.0141 38.1979L43.9927 38.4769L46.3021 38.3057L47.183 37.7067L47.2328 37.6569C47.6362 37.6437 47.9195 37.5098 48.089 37.3964C48.6431 37.0962 48.8124 36.6652 48.8565 36.3579L48.8578 36.3491C48.861 36.3292 48.864 36.3093 48.8665 36.2895L49.021 36.3713L50.7008 35.5602L50.6382 35.3242C50.9436 35.1519 51.1715 34.9287 51.3411 34.7625C51.3791 34.7252 51.448 34.6577 51.4803 34.6304C51.514 34.6108 51.5497 34.5924 51.5904 34.5713C51.8185 34.4537 52.2002 34.2567 52.47 33.7552C52.5263 33.6507 52.5811 33.5382 52.6333 33.4203C53.2731 32.7365 55.3079 30.3567 55.5027 27.5894C55.6546 25.4319 55.218 23.4741 54.2049 21.7701C54.1143 21.6176 53.9181 21.2784 53.6894 20.8827C52.4395 18.7212 51.9806 17.9529 51.7549 17.6451C51.5885 17.2352 51.6422 16.9476 51.6422 16.9476L52.1518 15.2462C52.3545 14.5694 54.1164 12.124 55.9335 10.8195L55.9521 14.3271H53.9394V20.3109H55.9179C55.9022 22.4467 55.874 27.2712 55.9294 28.4005C56.0238 30.3239 57.5712 31.0221 58.5882 31.0221H64.1371V28.1217C65.7711 30.501 68.4205 31.9117 71.2905 31.9117C76.093 31.9117 80 27.96 80 23.1026C80 18.2452 76.093 14.2935 71.2905 14.2935ZM37.7457 30.6998H31.7314V30.2795L31.5982 30.3257C30.6081 30.6685 29.6294 30.8424 28.6886 30.8424C25.7793 30.8422 23.9355 29.2255 23.1481 28.5352L22.9588 28.3709C22.5394 27.9948 22.0719 27.3792 21.6762 26.6822L21.4886 26.7317V30.687H15.1864V24.6239L12.7386 30.687H8.79586L6.32757 24.607L6.35042 30.687H0.20085V8.5751H7.19959L10.8076 18.1209L14.5795 8.5751H21.4886V18.0954L21.6729 18.1507C22.0226 17.6202 22.448 17.1158 22.9371 16.6514C24.6324 15.0422 26.6397 14.2262 28.9033 14.2262C29.7922 14.2262 30.7007 14.3565 31.6035 14.6135L31.7314 14.6498V14.1834H37.7457V30.6998ZM37.9465 8.48604H44.2361V13.9825H37.9465V8.48604ZM71.2905 31.7109C68.3787 31.7109 65.6987 30.2244 64.1215 27.7345L63.9362 27.7882V30.8212H58.5882C57.6481 30.8212 56.2176 30.1739 56.13 28.3907C56.0739 27.2483 56.104 22.29 56.1195 20.2111L56.1202 20.11H54.1403V14.5279H56.154L56.1334 10.6267L56.0329 10.6272L55.9764 10.5441C53.993 11.8927 52.1669 14.4957 51.9594 15.1885L51.5324 16.6142C51.5324 16.6142 51.3094 17.1527 51.5704 17.7261C51.5704 17.7261 52.2682 18.8261 53.5172 20.9863C53.7446 21.3796 53.941 21.7192 54.0323 21.8728C55.024 23.5408 55.4513 25.4595 55.3024 27.5753C55.1109 30.2935 53.0899 32.6408 52.475 33.2954L52.4632 33.308L52.4563 33.3238C52.4043 33.4424 52.3494 33.5555 52.2931 33.6599C52.0527 34.1067 51.7057 34.2859 51.4978 34.3932C51.4512 34.4172 51.4103 34.4384 51.3715 34.4614L51.3596 34.4695C51.3254 34.4971 51.2623 34.5585 51.2006 34.619C51.027 34.789 50.7894 35.0217 50.4747 35.1842L50.403 35.2212L50.4641 35.4514L49.0252 36.1462L48.6841 35.9656L48.6786 36.1261C48.6764 36.1881 48.6701 36.2523 48.6595 36.317L48.6579 36.3277C48.62 36.5918 48.4733 36.9613 47.9894 37.222L47.9809 37.2271C47.8287 37.3297 47.5674 37.4529 47.1872 37.457L47.1442 37.4575L47.0607 37.5469L46.2336 38.1094L44.2108 38.2592L44.2402 37.8772L44.121 37.8889C44.1003 37.891 44.0798 37.8926 44.0663 37.8937L44.0164 37.8982L43.8138 38.1192L43.4111 38.6439L42.5584 38.9044L42.3683 38.8917C42.0734 38.872 41.8345 38.8236 41.6583 38.7479L41.6151 38.7293L41.5732 38.7506C41.4228 38.8268 41.2173 38.9143 40.9607 38.9143C40.9492 38.9143 40.9379 38.9141 40.9265 38.9138L40.883 38.9124L40.8523 38.9432C40.7332 39.0625 40.4228 39.3614 40.1129 39.5607C39.8703 39.7167 39.5877 39.7991 39.2957 39.7991C38.9114 39.7991 38.6096 39.6604 38.461 39.5762C38.3542 39.5202 38.0854 39.3756 37.8963 39.2422C37.7751 39.1565 37.6684 39.0726 37.6002 39.0172L37.4477 38.9267L37.4129 38.9318C37.3627 38.9391 37.3086 38.9476 37.2516 38.9573C37.0786 38.9871 36.9628 38.999 36.8762 39.0081C36.7809 39.0179 36.76 39.0205 36.669 39.0448C36.4163 39.1122 36.2236 39.1126 36.096 39.1129C35.9941 39.1132 35.9062 39.1135 35.6713 39.1722L35.5637 39.1994L35.5501 39.2039C35.444 39.2478 35.3308 39.2758 35.2136 39.2871L35.2032 39.2887C35.0802 39.3138 34.9123 39.3425 34.7038 39.3425C34.6509 39.3425 34.5975 39.3406 34.5452 39.3368C34.4582 39.3306 34.372 39.3169 34.2888 39.296L34.2176 39.293L34.2148 39.2766L34.1592 39.257C34.0352 39.2133 33.9169 39.1527 33.8075 39.0767L33.762 39.0451L33.7109 39.0668C33.6228 39.1044 33.5297 39.137 33.3888 39.184C33.1997 39.247 33.0351 39.2764 32.8708 39.2764C32.7577 39.2764 32.6692 39.2622 32.6267 39.2554L32.612 39.2541C32.5406 39.2533 32.4669 39.2486 32.3927 39.2403L32.369 39.2376L32.3465 39.2459C32.2208 39.2924 32.0881 39.336 31.952 39.3753C31.7341 39.4383 31.5488 39.4676 31.3689 39.4676C31.2613 39.4676 31.1536 39.4564 31.0489 39.4342L31.0303 39.4312L30.9997 39.4346C30.8784 39.4483 30.6952 39.4692 30.4336 39.4746C30.4101 39.4751 30.388 39.4754 30.3672 39.4754C30.1432 39.4754 29.8114 39.4488 29.5173 39.2189L29.4983 39.2072C29.3066 39.1167 29.1524 38.9937 29.0399 38.8415L28.9318 38.9213L28.8766 38.8277C28.8533 38.8415 28.8288 38.8549 28.8031 38.8677C28.7449 38.8968 28.6823 38.9218 28.617 38.942L28.6039 38.9461L28.5924 38.9535C28.3231 39.1266 27.9823 39.174 27.6468 39.0778L27.6338 39.074L27.5919 39.0737L27.5812 39.0742C27.5591 39.0764 27.5304 39.08 27.4876 39.0852L27.3665 39.1L27.346 39.1144C27.1132 39.2778 26.8148 39.3462 26.5255 39.2996L26.4951 39.2947L26.4672 39.3077C26.2985 39.386 26.107 39.4257 25.898 39.4257C25.753 39.4257 25.6205 39.4193 25.5042 39.4067L25.4827 39.4043L25.4621 39.411C25.2834 39.4694 25.1011 39.4877 24.9281 39.4659C24.5339 39.4166 24.2683 39.2083 24.1723 39.121L23.9399 38.9095L23.8636 38.6046C23.6772 37.8589 23.9685 37.4033 24.1588 37.1981L24.168 37.1882L24.1742 37.1762C24.2908 36.9521 24.4858 36.7827 24.7538 36.6726L24.7835 36.6604L24.795 36.6509C25.0346 36.4543 25.3118 36.3642 25.6095 36.3869L25.6164 36.3874L25.6232 36.387C25.6439 36.3857 25.6654 36.385 25.6877 36.385C25.7385 36.385 25.8743 36.391 26.0351 36.446L26.0931 36.4659L26.1372 36.4235C26.3121 36.2554 26.5413 36.1462 26.7836 36.1159L26.8132 36.1096C26.927 36.0689 27.0469 36.0482 27.1697 36.0482C27.335 36.0482 27.4599 36.0824 27.646 36.1386C27.7015 36.1554 27.7537 36.173 27.8013 36.1908L27.8192 36.1975L27.8384 36.1972C27.9166 36.1957 27.9501 36.1903 27.9924 36.1836C28.054 36.1738 28.1384 36.1603 28.2525 36.157L28.2661 36.1557C28.4198 36.1301 28.5612 36.1329 28.7008 36.1623L28.7409 36.1707L29.0778 35.955L29.1145 35.966L29.1893 35.903C29.2068 35.8885 29.2274 35.8713 29.2513 35.8504C29.4248 35.6985 29.6192 35.6005 29.829 35.5592L29.8526 35.5514C29.9349 35.5124 30.0077 35.4885 30.0553 35.474L30.0742 35.4661C30.282 35.3526 30.479 35.3288 30.6076 35.3288C30.8085 35.3288 30.9623 35.3837 31.0456 35.4135C31.0826 35.4268 31.1176 35.4393 31.1814 35.4557C31.2001 35.4605 31.2185 35.4655 31.2365 35.4708L31.2863 35.4853L31.327 35.4532C31.545 35.2807 31.7848 35.21 31.9084 35.1832C32.0079 35.1615 32.1102 35.1506 32.2124 35.1506C32.3715 35.1506 32.5039 35.1771 32.5915 35.1947C32.6611 35.2087 32.6928 35.215 32.7504 35.215C32.8077 35.215 32.8816 35.2076 32.9639 35.1937C33.1119 35.1687 33.2275 35.1498 33.3262 35.1338L33.4616 35.1115L33.4583 35.0231C33.4481 34.7479 33.5363 34.3535 34.0152 34.037L34.0284 34.0266C34.19 33.8756 34.4755 33.6956 34.9173 33.6956C35.0384 33.6956 35.1526 33.7086 35.2543 33.7201C35.3448 33.7303 35.4303 33.7399 35.5116 33.7399C35.5306 33.7399 35.5502 33.7394 35.5706 33.738L35.6258 33.7335L35.6824 33.6917C35.7356 33.6524 35.8017 33.6033 35.8836 33.5487C35.9107 33.5306 35.9269 33.5181 35.9535 33.4972C36.3556 33.1817 36.6491 33.1817 37.182 33.1817C37.3359 33.1817 37.4338 33.1679 37.5479 33.1518C37.6721 33.1343 37.8268 33.1124 38.0216 33.1124C38.222 33.1124 38.4296 33.135 38.6749 33.1836L38.7055 33.1896L38.7342 33.1772C38.7936 33.1515 38.8923 33.0934 39.0058 33.0256C39.1923 32.9142 39.4243 32.7756 39.7197 32.6519C40.0151 32.5283 40.3374 32.3277 40.7454 32.0738C41.137 31.8301 41.5807 31.554 42.1523 31.2486C42.3245 31.1567 42.5195 31.033 42.7319 30.881L42.6734 30.7992V30.6988H37.9465V14.1834H44.437V14.1029C44.9866 12.7413 45.7276 11.697 46.8381 10.7193C47.9656 9.72654 49.0105 9.09284 49.0544 9.06642L49.1034 9.03866C49.4144 8.87339 49.8416 8.62122 49.9596 8.5219C50.0171 8.4707 50.0455 8.44357 50.0578 8.43163L50.0662 8.42228C50.103 8.37589 50.1495 8.31923 50.2353 8.23347C50.5274 7.94142 51.0104 7.72018 51.3642 7.586C51.6614 7.47324 51.8829 7.41505 52.286 7.30915C52.286 7.30915 52.4911 7.25514 52.4982 7.25318L52.5235 7.24628L52.5422 7.2279C52.6297 7.14185 52.7257 7.06224 52.8357 6.98462C53.059 6.82698 53.1931 6.74946 53.3129 6.68022C53.398 6.63097 53.4715 6.58844 53.5978 6.50536C53.6931 6.44279 53.7346 6.41359 53.7511 6.40163L53.7609 6.39342C53.8032 6.35354 53.8562 6.30466 53.9498 6.22979C54.3501 5.90941 54.7424 5.89611 54.9769 5.88817C55.0499 5.88571 55.113 5.88356 55.1903 5.87368C55.3018 5.85933 55.3884 5.85296 55.4709 5.85296C55.4962 5.85296 55.5255 5.85377 55.5581 5.85606L55.6075 5.85956L55.6404 5.82248C55.7779 5.66725 55.9294 5.56047 56.0302 5.48952L56.1154 5.42898L56.1262 5.41025C56.3103 5.09128 56.5426 4.92624 56.8367 4.71726L56.8732 4.69131C57.0784 4.54539 57.3623 4.37786 57.7408 4.37786C57.808 4.37786 57.8771 4.38346 57.9462 4.3945L57.9777 4.39951L58.0063 4.38548C58.3205 4.23143 58.5776 4.2243 58.7477 4.21959C58.8036 4.21806 58.8478 4.21688 58.904 4.20998C59.0091 4.19713 59.0888 4.19137 59.1625 4.19137C59.3602 4.19137 59.5424 4.23574 59.7041 4.3232L59.7619 4.35446L59.8136 4.31405C59.889 4.25523 59.956 4.20632 60.0245 4.16012C60.098 4.11062 60.1017 4.10771 60.156 4.05681C60.2431 3.97517 60.3747 3.85179 60.7051 3.5919C61.0162 3.34712 61.1242 3.25247 61.2031 3.18338C61.2744 3.12085 61.3419 3.06176 61.4718 2.9626C61.8453 2.67761 62.153 2.62677 62.3795 2.61431L62.4048 2.61294L62.4265 2.59964C62.513 2.5465 62.6113 2.48776 62.7434 2.41795C62.9618 2.30248 63.0937 2.23281 63.3107 2.19557L63.3544 2.18808L63.3783 2.15078C63.408 2.10445 63.4576 2.02697 63.5248 1.94284C63.7593 1.6499 63.95 1.56242 64.2402 1.45171C64.306 1.4266 64.3951 1.3926 64.5187 1.34252C64.6505 1.28912 64.7789 1.23868 64.9005 1.20821L64.9323 1.20023L64.9533 1.17506C64.9749 1.14913 64.9901 1.12958 65.005 1.11039C65.1462 0.928117 65.2508 0.843115 65.3944 0.750037L65.41 0.739967L65.4209 0.725054C65.4279 0.71544 65.4351 0.705832 65.4427 0.696056C65.6894 0.376736 66.0387 0.200872 66.4263 0.200872C66.4886 0.200872 66.5411 0.205318 66.5799 0.209208L66.5853 0.209731L66.6005 0.209664C66.9724 0.209664 67.2293 0.373723 67.3138 0.427604L67.3297 0.437806L67.3483 0.44147C67.5734 0.486158 67.7345 0.595325 67.8522 0.675031C68.2599 0.951231 68.3675 1.29808 68.3859 1.54038C68.4011 1.73939 68.369 2.03642 68.1301 2.32131L68.1198 2.33357L68.1138 2.34844C67.9891 2.6594 67.7935 2.87021 67.4982 3.01184L67.4852 3.01926C67.2355 3.18868 66.9434 3.35598 66.3665 3.37909L66.3231 3.38086L66.2947 3.41372C66.0265 3.72333 65.6119 3.94123 65.446 4.02065L65.3974 4.04341L65.3815 4.07123C65.3035 4.20828 65.2126 4.33023 65.0179 4.4833C65.0004 4.49703 64.9779 4.51482 64.9475 4.54055C64.6432 4.79802 64.3853 4.90362 64.0279 4.91719L63.9878 4.91882L63.9681 4.92892C63.93 4.94854 63.8807 4.97348 63.8172 5.00379L63.7851 5.01909L63.7698 5.05117C63.7207 5.15399 63.6613 5.24168 63.5789 5.36323L63.5521 5.40315C63.3183 5.7503 63.1577 5.88114 62.7708 6.03951L62.7186 6.06082L62.7097 6.1164C62.6946 6.20948 62.6684 6.3022 62.6318 6.39198C62.3024 7.20054 61.5809 7.28263 61.2727 7.31772L61.2152 7.32435C61.1678 7.32991 61.1243 7.33779 61.0782 7.34913L61.0315 7.36064L61.0112 7.40422C60.9298 7.57887 60.7358 7.91536 60.3514 8.20706C60.3243 8.22762 60.3019 8.24492 60.2799 8.26195C60.1547 8.35863 60.0159 8.4567 59.8234 8.5136H59.8105V8.51743C59.8027 8.51964 59.7954 8.52225 59.7874 8.52432L59.8105 8.61395V8.71447H59.8365L59.8376 8.71879C59.8426 8.71747 59.8472 8.71582 59.8522 8.71447H62.3102V14.5029H63.9362V18.4169L64.1215 18.4706C65.6988 15.9808 68.3788 14.4944 71.2905 14.4944C75.9822 14.4944 79.7991 18.356 79.7991 23.1026C79.7991 27.8493 75.9822 31.7109 71.2905 31.7109Z" fill="#181919"/>
<path d="M1.23926 29.6486V9.61344H6.48226L10.7862 21.0006L15.2858 9.61344H20.4506V29.6486H16.2249V19.2789L12.0383 29.6486H9.49503L5.26933 19.2397L5.30845 29.6486H1.23926ZM43.1981 15.2218H39.0502V29.4835H43.1981V15.2218ZM43.198 9.29102H39.0502V13.1775H43.198V9.29102ZM36.7076 15.2218V29.6615H32.7699V28.6842C27.5317 31.4372 24.5327 28.3402 23.652 27.5978C22.3452 26.4259 19.5053 21.3409 23.652 17.4046C27.7988 13.4682 32.7699 16.1672 32.7699 16.1672V15.2218H36.7076ZM31.9949 22.5129C31.9949 20.8392 30.6432 19.4824 28.9757 19.4824C27.3083 19.4824 25.9566 20.8392 25.9566 22.5129C25.9566 24.1866 27.3083 25.5433 28.9757 25.5433C30.6432 25.5433 31.9949 24.1866 31.9949 22.5129ZM57.198 15.5663H55.1787V19.0716H57.1672C57.1672 19.0716 57.0963 26.8968 57.1672 28.3398C57.2381 29.7829 58.5884 29.7829 58.5884 29.7829H62.8982V25.9785H61.2879V19.0575H62.8982V15.5413H61.2722V9.75283H57.1672L57.198 15.5663ZM78.7611 23.1026C78.7611 27.2833 75.4165 30.6725 71.2907 30.6725C67.165 30.6725 63.8204 27.2833 63.8204 23.1026C63.8204 18.9219 67.165 15.5327 71.2907 15.5327C75.4165 15.5327 78.7611 18.9219 78.7611 23.1026ZM74.1867 23.1026C74.1867 21.4848 72.8901 20.1734 71.2907 20.1734C69.6913 20.1734 68.3947 21.4848 68.3947 23.1026C68.3947 24.7204 69.6913 26.0318 71.2907 26.0318C72.8901 26.0318 74.1867 24.7204 74.1867 23.1026Z" fill="#C20D19"/>
</svg>
