<svg width="48" height="48" viewBox="0 0 48 48" fill="none" xmlns="http://www.w3.org/2000/svg">
<path d="M16.9767 31C15.3357 31 14 32.3558 14 34.0226C14 35.6635 15.3356 37 16.9767 37C18.6714 37 19.9991 35.6907 19.9991 34.0226C19.9992 32.3269 18.6714 31 16.9767 31Z" fill="white"/>
<path d="M33.0193 31C31.3527 31 30.0003 32.3558 30.0003 34.0226C30.0003 35.6635 31.3527 37 33.0193 37C34.6636 37 36 35.6635 36 34.0226C36.0001 32.3269 34.6908 31 33.0193 31Z" fill="white"/>
<path d="M38 14.9423L35.17 27.8314L17.3048 30.0002L11 13L10 13.0003V11L12.9237 11.0002L14.3427 14.9423H38Z" fill="white"/>
</svg>
