<svg width="24" height="24" viewBox="0 0 24 24" fill="none" xmlns="http://www.w3.org/2000/svg">
<path fill-rule="evenodd" clip-rule="evenodd" d="M15.3446 14L22 20.6554L20.6554 22L14 15.3446L15.3446 14Z" fill="#F0CDC8"/>
<circle cx="12" cy="12" r="8" fill="white"/>
</svg>
