<svg width="48" height="48" viewBox="0 0 48 48" fill="none" xmlns="http://www.w3.org/2000/svg">
<path d="M36 31V17H12V31H36Z" fill="url(#paint0_linear)"/>
<path d="M36 17H12L24 27L36 17Z" fill="#AAC4EA"/>
<defs>
<linearGradient id="paint0_linear" x1="12" y1="31" x2="36" y2="17" gradientUnits="userSpaceOnUse">
<stop stop-color="#12417A"/>
<stop offset="0.628512" stop-color="#3163A0"/>
</linearGradient>
</defs>
</svg>
