<svg width="14" height="28" viewBox="0 0 14 28" fill="none" xmlns="http://www.w3.org/2000/svg">
<path d="M9.08712 27.9999V15.2277H13.2148L13.8327 10.2502H9.08712V7.0722C9.08712 5.63113 9.47245 4.64895 11.4623 4.64895L14 4.64774V0.19592C13.5609 0.135481 12.0546 0 10.3021 0C6.64324 0 4.13831 2.31954 4.13831 6.57949V10.2503H0V15.2278H4.13818V28L9.08712 27.9999Z" fill="#245796"/>
</svg>
