<svg width="96" height="96" viewBox="0 0 96 96" fill="none" xmlns="http://www.w3.org/2000/svg">
<rect width="96" height="96" fill="white"/>
<path d="M83 32H13V48H83V32Z" fill="#FDECE9"/>
<path d="M13 52V80H83V52H13Z" fill="#FDECE9"/>
<path fill-rule="evenodd" clip-rule="evenodd" d="M83 80H13V79H83V80Z" fill="#ED4228"/>
<path fill-rule="evenodd" clip-rule="evenodd" d="M32 16H64V28H59V21H37V28H32V16Z" fill="#ED4228"/>
<path d="M43 58V48H53V58H43Z" fill="#ED4228"/>
</svg>
