<svg width="28" height="26" viewBox="0 0 28 26" fill="none" xmlns="http://www.w3.org/2000/svg">
<path d="M6.97674 20C5.33571 20 4 21.3558 4 23.0226C4 24.6635 5.33558 26 6.97674 26C8.67138 26 9.99911 24.6907 9.99911 23.0226C9.99917 21.3269 8.67145 20 6.97674 20Z" fill="white"/>
<path d="M23.0193 20C21.3527 20 20.0003 21.3558 20.0003 23.0226C20.0003 24.6635 21.3527 26 23.0193 26C24.6636 26 26 24.6635 26 23.0226C26.0001 21.3269 24.6908 20 23.0193 20Z" fill="white"/>
<path d="M28 3.94235L25.17 16.8314L7.30475 19.0002L1 2L0 2.00031V0L2.92369 0.000203133L4.34274 3.94235H28Z" fill="white"/>
</svg>
