<svg width="12" height="16" viewBox="0 0 12 16" fill="none" xmlns="http://www.w3.org/2000/svg">
<path d="M0.6 14.2C0.6 15.2 1.5 16 2.5 16H9.5C10.5 16 11.4 15.2 11.4 14.2V3.5H0.6V14.2ZM12 1H9.1L8.2 0H3.8L2.9 1H0V2.6H12V1Z" fill="#B9CFEE"/>
</svg>
