<svg width="16" height="16" viewBox="0 0 16 16" fill="none" xmlns="http://www.w3.org/2000/svg">
<path d="M4 0H0V16H16V12L4 12V0Z" fill="#0A9A7F"/>
<path d="M7 0H16V9L13 6L10 9L7 6L10 3L7 0Z" fill="#8CDCCD"/>
</svg>
