<svg width="270" height="70" viewBox="0 0 270 70" fill="none" xmlns="http://www.w3.org/2000/svg">
<path d="M129.477 26.2088C129.364 25.9417 129.287 25.6054 129.287 25.3042C129.287 24.0225 130.392 23.0429 131.691 23.0429C132.836 23.0429 133.712 23.7566 134.018 24.7361L140.16 42.8629L146.194 24.8134C146.575 23.7191 147.376 22.9702 148.557 22.9702H148.901C150.088 22.9702 150.926 23.7191 151.266 24.8134L157.297 42.8629L163.445 24.7009C163.783 23.7566 164.584 23.0429 165.732 23.0429C166.992 23.0429 168.058 24.0213 168.058 25.2645C168.058 25.5645 167.944 25.9406 167.83 26.2076L159.931 48.0628C159.515 49.2298 158.636 49.982 157.488 49.982H157.032C155.889 49.982 155.049 49.2684 154.63 48.0628L148.676 30.8416L142.721 48.0628C142.305 49.2684 141.425 49.982 140.282 49.982H139.821C138.676 49.982 137.838 49.2684 137.379 48.0628L129.477 26.2088Z" fill="#00AB4E"/>
<path d="M192.542 36.4905V36.4155C192.542 31.294 188.764 27.0384 183.457 27.0384C178.153 27.0384 174.45 31.2156 174.45 36.3439V36.4155C174.45 41.5426 178.232 45.7607 183.537 45.7607C188.842 45.7618 192.542 41.6176 192.542 36.4905ZM169.529 36.4905V36.4155C169.529 28.9941 175.328 22.7783 183.536 22.7783C191.738 22.7783 197.465 28.9202 197.465 36.3439V36.4155C197.465 43.8414 191.662 50.0549 183.457 50.0549C175.25 50.0549 169.529 43.9187 169.529 36.4905Z" fill="#00AB4E"/>
<path d="M200.819 36.4905V36.4155C200.819 29.0327 206.546 22.7783 214.594 22.7783C218.603 22.7783 221.276 23.7192 223.716 25.4544C224.176 25.7919 224.668 26.435 224.668 27.3373C224.668 28.5816 223.637 29.6361 222.342 29.6361C221.731 29.6361 221.276 29.3702 220.893 29.11C219.175 27.8691 217.305 27.0384 214.403 27.0384C209.482 27.0384 205.74 31.294 205.74 36.3439V36.4155C205.74 41.8449 209.365 45.838 214.825 45.838C217.344 45.838 219.629 45.0482 221.275 43.8414V38.9052H216.008C214.865 38.9052 213.907 38.0416 213.907 36.9064C213.907 35.7769 214.864 34.8757 216.008 34.8757H223.449C224.784 34.8757 225.813 35.8939 225.813 37.2109V44.2585C225.813 45.5766 225.278 46.5186 224.175 47.1948C221.884 48.7038 218.677 50.0549 214.672 50.0549C206.316 50.0549 200.819 44.1789 200.819 36.4905Z" fill="#00AB4E"/>
<path d="M98.1962 18.9498C98.1962 14.0238 102.264 10 107.26 10C112.226 10 116.318 14.0454 116.318 18.9498C116.318 20.5759 115.867 22.102 115.09 23.4247L107.26 36.8437L99.412 23.4247C98.6393 22.1065 98.1962 20.5793 98.1962 18.9498Z" fill="#F6B221"/>
<path d="M72.3105 23.4088C69.8152 19.1396 71.3072 13.65 75.6264 11.1876C79.9319 8.73534 85.5216 10.2137 88.0079 14.4613L102.378 39.0425C103.519 40.9891 103.519 43.222 102.378 45.1697L93.7077 60L72.3105 23.4088Z" fill="#00AB4E"/>
<path d="M45.2111 23.4086C42.7135 19.1394 44.2043 13.6497 48.5292 11.1873C52.828 8.73509 58.421 10.2135 60.9073 14.4611L75.2797 39.0423C76.4172 40.9888 76.4172 43.2217 75.2797 45.1694L66.6083 59.9997L45.2111 23.4086Z" fill="#00AB4E"/>
</svg>
