<svg width="270" height="70" viewBox="0 0 270 70" fill="none" xmlns="http://www.w3.org/2000/svg">
<rect x="62" y="5" width="147" height="60" fill="#102972"/>
<path fill-rule="evenodd" clip-rule="evenodd" d="M96.45 44.75L100.533 32.5055V44.75H106.628V25.256H98.4005L94.4388 35.003L90.4776 25.256H82.25V44.75H88.3448V32.5055L92.4582 44.75H96.45ZM161.947 37.1718C163.848 37.0197 165.744 35.7261 165.744 33.602V29.2156V28.7892C165.523 26.5924 163.874 25.4063 161.919 25.25H146.242L146.242 44.75H152.336V37.1718H154.762L158.723 44.75H165.731L161.014 37.1718H161.947ZM160.259 32.1153C160.259 32.5371 160.154 32.9073 159.396 32.9073H152.336V29.0811H159.405C160.265 29.0811 160.259 29.6434 160.259 29.9946V32.1153ZM124.911 29.0941V25.256H109.065V44.75L125.121 44.7458L125.127 40.9122H115.175L115.176 36.737H124.911V32.909H115.176V29.0941H124.911ZM132.529 29.0941H126.739V25.256H144.413V29.0941H138.623V44.75H132.529V29.0941ZM184.941 25.256H171.991C170.044 25.413 168.401 26.3995 168.181 28.6066V41.2167C168.401 43.4238 170.044 44.593 171.991 44.75H184.941C186.887 44.593 188.53 43.4238 188.75 41.2167V28.6066C188.53 26.3995 186.887 25.413 184.941 25.256ZM182.656 40.0409C182.627 40.26 182.545 40.8371 181.793 40.9119H175.193C174.441 40.8371 174.304 40.26 174.276 40.0409V29.8555C174.304 29.636 174.408 29.1685 175.16 29.0941H181.796C182.548 29.1685 182.627 29.636 182.656 29.8555V40.0409Z" fill="#FFE500"/>
</svg>
