<svg width="121" height="40" viewBox="0 0 121 40" fill="none" xmlns="http://www.w3.org/2000/svg">
<path fill-rule="evenodd" clip-rule="evenodd" d="M118.633 31.8348C118.633 35.4272 115.691 38.3671 112.094 38.3671H8.17414C4.57717 38.3671 1.6344 35.4272 1.6344 31.8348V8.16681C1.6344 4.5745 4.57717 1.63477 8.17414 1.63477H112.094C115.691 1.63477 118.633 4.5745 118.633 8.16681V31.8348Z" fill="#5F9728"/>
<path d="M112.094 40H8.17425C3.66666 40 0 36.337 0 31.8339V8.16598C0 3.66345 3.66666 0 8.17425 0H112.094C116.602 0 120.268 3.66345 120.268 8.16598V31.8339C120.268 36.337 116.602 40 112.094 40ZM8.17425 3.26688C5.46956 3.26688 3.2695 5.46448 3.2695 8.16598V31.8339C3.2695 34.5356 5.46956 36.7334 8.17425 36.7334H112.094C114.798 36.7334 116.998 34.5356 116.998 31.8339V8.16598C116.998 5.46448 114.798 3.26688 112.094 3.26688H8.17425V3.26688Z" fill="#FDC202"/>
<path d="M14.6199 13.1313C15.7909 13.1313 16.6477 13.3603 17.1899 13.8177C17.7323 14.2755 18.0898 14.78 18.2626 15.3317C18.3485 15.5879 18.4073 15.8334 18.438 16.0691C18.4689 16.3045 18.4846 16.5227 18.4846 16.725C18.4846 17.4516 18.2842 18.0709 17.8835 18.5819C17.4827 19.0937 17.011 19.4574 16.4689 19.6723V19.7134C16.617 19.7532 16.7954 19.814 17.0054 19.8944C17.2146 19.9754 17.4306 20.0896 17.6522 20.2379C18.0345 20.4936 18.3886 20.8637 18.7153 21.348C19.0418 21.8326 19.2055 22.4922 19.2055 23.3268C19.2055 23.4073 19.2021 23.4852 19.1962 23.5589C19.1899 23.6328 19.187 23.7102 19.187 23.7911C19.1005 24.6523 18.7307 25.4466 18.0779 26.1733C17.4241 26.8998 16.3887 27.2637 14.9711 27.2637H8.16699V13.1313H14.6199ZM13.3072 18.7035C13.837 18.7035 14.219 18.6129 14.4538 18.431C14.6877 18.249 14.8417 18.0442 14.9157 17.8151C14.9401 17.7342 14.9554 17.6571 14.9618 17.5831C14.9681 17.5092 14.9711 17.4383 14.9711 17.3708C14.9711 17.0077 14.8508 16.6813 14.6107 16.3919C14.3703 16.1027 13.9358 15.9577 13.3072 15.9577H11.9762V18.7035H13.3072ZM13.4551 24.4369C13.5534 24.4369 13.6828 24.4343 13.8434 24.4272C14.0036 24.4205 14.1638 24.3968 14.3242 24.3562C14.595 24.2893 14.8417 24.1513 15.0637 23.9423C15.2859 23.7338 15.3967 23.4009 15.3967 22.9428C15.3967 22.4987 15.282 22.1796 15.0543 21.9842C14.8263 21.7893 14.5833 21.6581 14.3242 21.5904C14.1764 21.5639 14.0312 21.5468 13.8893 21.5402C13.7477 21.5329 13.6274 21.5297 13.5291 21.5297H11.9762V24.4369H13.4551Z" fill="white"/>
<path d="M24.1974 13.1313H28.7829L33.3684 27.2637H29.3004L28.5978 24.821H24.3821L23.6613 27.2637H19.5933L24.1974 13.1313ZM25.1035 21.7115H27.8767L26.4904 16.725L25.1035 21.7115Z" fill="white"/>
<path d="M40.8565 13.1313C42.0275 13.1313 42.884 13.3603 43.4265 13.8177C43.969 14.2755 44.3264 14.78 44.4993 15.3317C44.5851 15.5879 44.6439 15.8334 44.6749 16.0691C44.705 16.3045 44.721 16.5227 44.721 16.725C44.721 17.4516 44.5207 18.0709 44.1199 18.5819C43.719 19.0937 43.2477 19.4574 42.7054 19.6723V19.7134C42.8536 19.7532 43.0319 19.814 43.2418 19.8944C43.4509 19.9754 43.6669 20.0896 43.8889 20.2379C44.2709 20.4936 44.6253 20.8637 44.9522 21.348C45.2782 21.8326 45.442 22.4922 45.442 23.3268C45.442 23.4073 45.4391 23.4852 45.4328 23.5589C45.4266 23.6328 45.4233 23.7102 45.4233 23.7911C45.3373 24.6523 44.9672 25.4466 44.314 26.1733C43.6606 26.8998 42.6255 27.2637 41.2078 27.2637H34.4038V13.1313H40.8565ZM39.5439 18.7035C40.0737 18.7035 40.456 18.6129 40.6907 18.431C40.9244 18.249 41.0784 18.0442 41.1524 17.8151C41.1769 17.7342 41.1921 17.6571 41.1986 17.5831C41.2047 17.5092 41.2078 17.4383 41.2078 17.3708C41.2078 17.0077 41.0877 16.6813 40.8473 16.3919C40.6066 16.1027 40.1724 15.9577 39.5439 15.9577H38.2125V18.7035H39.5439ZM39.6915 24.4369C39.7902 24.4369 39.9199 24.4343 40.0802 24.4272C40.24 24.4205 40.4004 24.3968 40.5608 24.3562C40.8316 24.2893 41.0784 24.1513 41.3 23.9423C41.5222 23.7338 41.6334 23.4009 41.6334 22.9428C41.6334 22.4987 41.5188 22.1796 41.2908 21.9842C41.063 21.7893 40.8196 21.6581 40.5608 21.5904C40.4131 21.5639 40.2677 21.5468 40.126 21.5402C39.9843 21.5329 39.8639 21.5297 39.7657 21.5297H38.2125V24.4369H39.6915Z" fill="white"/>
<path d="M50.0645 21.7722L45.5898 13.1313H50.0464L52.1538 17.8961L54.2066 13.1313H58.3479L53.8734 21.7722V27.2637H50.0645V21.7722Z" fill="white"/>
<path d="M65.0961 16.5227H62.2487V13.1313H71.7523V16.5227H68.9048V27.2637H65.0961V16.5227Z" fill="white"/>
<path d="M73.0467 13.1313H80.9973V16.5227H76.8554V18.5015H80.6086V21.6106H76.8554V23.8719H80.9973V27.2637H73.0467V13.1313Z" fill="white"/>
<path d="M86.2478 13.1313H90.8333L95.4189 27.2637H91.3509L90.6483 24.821H86.4325L85.7116 27.2637H81.6435L86.2478 13.1313ZM87.1543 21.7115H89.9271L88.5408 16.725L87.1543 21.7115Z" fill="white"/>
<path d="M97.6563 13.1313H101.465L103.647 21.4086L105.829 13.1313H109.638L111.524 27.2637H107.863L106.957 19.5517L104.904 27.2637H102.39L100.337 19.5517L99.4314 27.2637H95.7704L97.6563 13.1313Z" fill="white"/>
<path d="M115.189 14.4766C115.189 15.5906 114.314 16.4645 113.174 16.4645C112.048 16.4645 111.148 15.5906 111.148 14.4766C111.148 13.3855 112.048 12.5117 113.174 12.5117C114.314 12.5117 115.189 13.3855 115.189 14.4766ZM111.651 14.4766C111.651 15.3509 112.299 16.0463 113.187 16.0463C114.05 16.0463 114.686 15.3509 114.686 14.4884C114.686 13.6143 114.05 12.9069 113.174 12.9069C112.299 12.9069 111.651 13.6143 111.651 14.4766ZM112.863 15.5061H112.407V13.5419C112.588 13.5055 112.839 13.4819 113.163 13.4819C113.534 13.4819 113.703 13.5419 113.846 13.6258C113.955 13.7104 114.038 13.8656 114.038 14.0564C114.038 14.2716 113.871 14.4398 113.63 14.5127V14.5362C113.823 14.6081 113.93 14.7508 113.99 15.0147C114.05 15.3146 114.086 15.4349 114.133 15.5061H113.643C113.583 15.4349 113.547 15.2551 113.487 15.0271C113.45 14.8125 113.331 14.7162 113.078 14.7162H112.863V15.5061ZM112.875 14.3927H113.091C113.343 14.3927 113.547 14.3082 113.547 14.105C113.547 13.9253 113.416 13.8057 113.128 13.8057C113.007 13.8057 112.923 13.8169 112.875 13.8294V14.3927Z" fill="white"/>
</svg>
